smm-scripts.R
…
# save data as an Rdata file
save(annotations, file="data/annotations.Rdata")
# load(url("https://github.com/meefen/lasi18-smm/raw/master/data/annotations.Rdata"))

# 3. Analyze Twitter data

## 3.0. Basic descriptive analysis

# Most active participant
tweets %>% group_by(from_user) %>%
  summarise(count = n()) %>%
  arrange(desc(count))

## # A tibble: 61 x 2
##         from_user count
##             <chr> <int>
##  1        alywise    29
##  2      NYU_LEARN    24
##  3         bod0ng    16
##  4  Alex_J_Bowers    13
##  5   stephteasley     9
##  6        malpaso     8
##  7 personalizedCo     8
##  8 skiptomylouisa     7
##  9     vkovanovic     7
## 10       shaned07     6
## # ... with 51 more rows

# Most popular participant - retweeted
tweets %>% group_by(retweet_from) %>%
  summarise(count = n()) %>%
  arrange(desc(count))

## # A tibble: 25 x 2
##      retweet_from count
##             <chr> <int>
##  1           <NA>    62
##  2        alywise    19
##  3      NYU_LEARN    18
##  4         bod0ng    13
##  5   SoLAResearch    13
##  6      sbuckshum    11
##  7       sosulski     9
##  8   stephteasley     9
##  9     vkovanovic     9
## 10 skiptomylouisa     7
## # ... with 15 more rows
…
